Date/Time,Word Count,cs,en,pl-PL
2021.09.06-08.44.40,31,0,31,0
2021.09.14-10.12.16,30,0,30,0
2021.09.14-10.20.40,30,0,30,2
2021.09.14-10.24.39,30,0,30,0
2021.09.14-10.28.19,30,0,30,2
2021.09.14-10.29.11,30,0,30,4
2021.09.14-10.32.12,30,0,30,5
2021.09.14-10.33.27,30,0,30,6
2021.09.14-10.35.28,30,0,30,4
2021.09.14-10.37.35,30,0,30,6
